{
    "usageCount": 117, 
    "omitTrigger": false, 
    "prompt": false, 
    "description": "ltx Mathbb (number sets)", 
    "abbreviation": {
        "wordChars": "[\\w]", 
        "abbreviations": [
            ",,bb", 
            "..bb"
        ], 
        "immediate": true, 
        "ignoreCase": false, 
        "backspace": true, 
        "triggerInside": true
    }, 
    "hotkey": {
        "hotKey": null, 
        "modifiers": []
    }, 
    "modes": [
        1
    ], 
    "showInTrayMenu": false, 
    "matchCase": false, 
    "filter": {
        "regex": null, 
        "isRecursive": false
    }, 
    "type": "phrase", 
    "sendMode": "kb"
}